…
    ## # A tibble: 0 × 5
    ## # ℹ 5 variables: series <dbl>, episode <dbl>, baker <chr>,
    ## #   signature_bake <chr>, show_stopper <chr>

Find rows in bakers that are not present in bakes.

``` r
missing_in_bakes_for_bakers <- anti_join(bakers, bakes, by = c("series", "first_name" = "baker"))
missing_in_bakes_for_bakers
```

    ## # A tibble: 25 × 6
    ##    first_name last_name       series baker_age baker_occupation         hometown
    ##    <chr>      <chr>            <dbl>     <dbl> <chr>                    <chr>   
    ##  1 Antony     Amourdoux            9        30 Banker                   London  
    ##  2 Briony     Williams             9        33 Full-time parent         Bristol 
    ##  3 Dan        Beasley-Harling      9        36 Full-time parent         London  
    ##  4 Imelda     McCarron             9        33 Countryside recreation … County …
    ##  5 Jon        Jenkins              9        47 Blood courier            Newport 
    ##  6 Karen      Wright               9        60 In-store sampling assis… Wakefie…
    ##  7 Kim-Joy    Hewlett              9        27 Mental health specialist Leeds   
    ##  8 Luke       Thompson             9        30 Civil servant/house and… Sheffie…
    ##  9 Manon      Lagrave              9        26 Software project manager London  
    ## 10 Rahul      Mandal               9        30 Research scientist       Rotherh…
    ## # ℹ 15 more rows
…
